<svg width="24" height="24" viewBox="0 0 24 24" fill="none" xmlns="http://www.w3.org/2000/svg">
<g clip-path="url(#clip0_2781_889)">
<mask id="mask0_2781_889" style="mask-type:luminance" maskUnits="userSpaceOnUse" x="0" y="0" width="24" height="24">
<path d="M24 0H0V24H24V0Z" fill="white"/>
</mask>
<g mask="url(#mask0_2781_889)">
<path d="M12 22C17.5228 22 22 17.5228 22 12C22 6.47715 17.5228 2 12 2C6.47715 2 2 6.47715 2 12C2 17.5228 6.47715 22 12 22Z" fill="black" fill-opacity="0.31"/>
<path d="M16.9998 10.9994H9.41379L10.7068 9.70643C10.889 9.51783 10.9898 9.26523 10.9875 9.00303C10.9852 8.74083 10.8801 8.49002 10.6946 8.30461C10.5092 8.1192 10.2584 8.01403 9.99619 8.01176C9.73399 8.00948 9.48139 8.11027 9.29279 8.29243L6.29279 11.2924C6.10532 11.48 6 11.7343 6 11.9994C6 12.2646 6.10532 12.5189 6.29279 12.7064L9.29279 15.7064C9.48139 15.8886 9.73399 15.9894 9.99619 15.9871C10.2584 15.9848 10.5092 15.8797 10.6946 15.6942C10.8801 15.5088 10.9852 15.258 10.9875 14.9958C10.9898 14.7336 10.889 14.481 10.7068 14.2924L9.41379 12.9994H16.9998C17.265 12.9994 17.5194 12.8941 17.7069 12.7065C17.8945 12.519 17.9998 12.2646 17.9998 11.9994C17.9998 11.7342 17.8945 11.4799 17.7069 11.2923C17.5194 11.1048 17.265 10.9994 16.9998 10.9994Z" fill="#EDEDED"/>
</g>
</g>
<defs>
<clipPath id="clip0_2781_889">
<rect width="24" height="24" fill="white"/>
</clipPath>
</defs>
</svg>
